TrigSignatureMoniMT                                 INFO HLT_mb_sp400_trk40_hmt_L1RD0_FILLED20        20        20        19        19        
TrigSignatureMoniMT                                 INFO HLT_mb_sp400_trk40_hmt_L1RD0_FILLED decisions                    20        19        
TrigSignatureMoniMT                                 INFO HLT_mb_sp600_trk45_hmt_L1RD0_FILLED20        20        20        19        19        
TrigSignatureMoniMT                                 INFO HLT_mb_sp600_trk45_hmt_L1RD0_FILLED decisions                    20        19        
TrigSignatureMoniMT                                 INFO HLT_mb_sptrk_L1RD0_FILLED     20        20        20        19        19        
TrigSignatureMoniMT                                 INFO HLT_mb_sptrk_L1RD0_FILLED decisions                    20        19        
